{
  "count": 1010,
  "pages": 11,
  "current_page": 1,
  "results": [
    {
      "rank": 1,
      "ticker": "AI",
      "name": "C3 AI",
      "mentions": "229",
      "upvotes": "751",
      "rank_24h_ago": "3",
      "mentions_24h_ago": "213"
    },
    {
      "rank": 2,
      "ticker": "SPY",
      "name": "SPDR S&amp;P 500 ETF Trust",
      "mentions": "179",
      "upvotes": "646",
      "rank_24h_ago": "1",
      "mentions_24h_ago": "426"
    },
    {
      "rank": 3,
      "ticker": "TSLA",
      "name": "Tesla",
      "mentions": "89",
      "upvotes": "281",
      "rank_24h_ago": "4",
      "mentions_24h_ago": "159"
    },
    {
      "rank": 4,
      "ticker": "MSFT",
      "name": "Microsoft",
      "mentions": "88",
      "upvotes": "881",
      "rank_24h_ago": "29",
      "mentions_24h_ago": "29"
    },
    {
      "rank": 5,
      "ticker": "AMC",
      "name": "AMC Entertainment",
      "mentions": "69",
      "upvotes": "212",
      "rank_24h_ago": "9",
      "mentions_24h_ago": "73"
    },
    {
      "rank": 6,
      "ticker": "NVDA",
      "name": "NVIDIA",
      "mentions": "64",
      "upvotes": "194",
      "rank_24h_ago": "2",
      "mentions_24h_ago": "202"
    },
    {
      "rank": 7,
      "ticker": "TD",
      "name": "Toronto Dominion Bank",
      "mentions": "45",
      "upvotes": "345",
      "rank_24h_ago": "10",
      "mentions_24h_ago": "51"
    },
    {
      "rank": 8,
      "ticker": "FRC",
      "name": "First Republic Bank",
      "mentions": "44",
      "upvotes": "72",
      "rank_24h_ago": "11",
      "mentions_24h_ago": "48"
    },
    {
      "rank": 9,
      "ticker": "DTE",
      "name": "DTE Energy",
      "mentions": "43",
      "upvotes": "195",
      "rank_24h_ago": "5",
      "mentions_24h_ago": "87"
    },
    {
      "rank": 10,
      "ticker": "QQQ",
      "name": "Invesco QQQ ETF",
      "mentions": "41",
      "upvotes": "145",
      "rank_24h_ago": "7",
      "mentions_24h_ago": "78"
    },
    {
      "rank": 11,
      "ticker": "VOO",
      "name": "Vanguard S&amp;P 500 ETF",
      "mentions": "32",
      "upvotes": "186",
      "rank_24h_ago": "14",
      "mentions_24h_ago": "37"
    },
    {
      "rank": 12,
      "ticker": "AAPL",
      "name": "Apple",
      "mentions": "30",
      "upvotes": "68",
      "rank_24h_ago": "6",
      "mentions_24h_ago": "90"
    },
    {
      "rank": 13,
      "ticker": "META",
      "name": "Meta Platforms (Facebook)",
      "mentions": "26",
      "upvotes": "144",
      "rank_24h_ago": "35",
      "mentions_24h_ago": "13"
    },
    {
      "rank": 14,
      "ticker": "GME",
      "name": "GameStop",
      "mentions": "25",
      "upvotes": "109",
      "rank_24h_ago": "38",
      "mentions_24h_ago": "16"
    },
    {
      "rank": 15,
      "ticker": "CC",
      "name": "Chemours",
      "mentions": "25",
      "upvotes": "84",
      "rank_24h_ago": "18",
      "mentions_24h_ago": "25"
    },
    {
      "rank": 16,
      "ticker": "TRKA",
      "name": "Troika Media Group",
      "mentions": "23",
      "upvotes": "78",
      "rank_24h_ago": "17",
      "mentions_24h_ago": "28"
    },
    {
      "rank": 17,
      "ticker": "GOOG",
      "name": "Alphabet (Google)",
      "mentions": "23",
      "upvotes": "59",
      "rank_24h_ago": "45",
      "mentions_24h_ago": "19"
    },
    {
      "rank": 18,
      "ticker": "SCHW",
      "name": "Charles Schwab",
      "mentions": "19",
      "upvotes": "95",
      "rank_24h_ago": "8",
      "mentions_24h_ago": "68"
    },
    {
      "rank": 19,
      "ticker": "AM",
      "name": "Antero Midstream",
      "mentions": "19",
      "upvotes": "59",
      "rank_24h_ago": "13",
      "mentions_24h_ago": "34"
    },
    {
      "rank": 20,
      "ticker": "AMD",
      "name": "AMD",
      "mentions": "18",
      "upvotes": "52",
      "rank_24h_ago": "16",
      "mentions_24h_ago": "34"
    },
    {
      "rank": 21,
      "ticker": "EU",
      "name": "enCore Energy",
      "mentions": "17",
      "upvotes": "82",
      "rank_24h_ago": "30",
      "mentions_24h_ago": "21"
    },
    {
      "rank": 22,
      "ticker": "GOOGL",
      "name": "Alphabet (Google)",
      "mentions": "17",
      "upvotes": "47",
      "rank_24h_ago": "87",
      "mentions_24h_ago": "11"
    },
    {
      "rank": 23,
      "ticker": "YOU",
      "name": "CLEAR Secure",
      "mentions": "16",
      "upvotes": "35",
      "rank_24h_ago": "24",
      "mentions_24h_ago": "20"
    },
    {
      "rank": 24,
      "ticker": "ICE",
      "name": "Intercontinental Exchange",
      "mentions": "14",
      "upvotes": "45",
      "rank_24h_ago": "176",
      "mentions_24h_ago": "4"
    },
    {
      "rank": 25,
      "ticker": "IT",
      "name": "Gartner",
      "mentions": "13",
      "upvotes": "36",
      "rank_24h_ago": "20",
      "mentions_24h_ago": "21"
    },
    {
      "rank": 26,
      "ticker": "CD",
      "name": "Chindata",
      "mentions": "13",
      "upvotes": "41",
      "rank_24h_ago": "15",
      "mentions_24h_ago": "25"
    },
    {
      "rank": 27,
      "ticker": "BOIL",
      "name": "ProShares Trust - ProShares Ultra Bloomberg Natural Gas",
      "mentions": "13",
      "upvotes": "28",
      "rank_24h_ago": "49",
      "mentions_24h_ago": "14"
    },
    {
      "rank": 28,
      "ticker": "BB",
      "name": "BlackBerry",
      "mentions": "13",
      "upvotes": "18",
      "rank_24h_ago": "55",
      "mentions_24h_ago": "6"
    },
    {
      "rank": 29,
      "ticker": "BKNG",
      "name": "Booking.com",
      "mentions": "13",
      "upvotes": "146",
      "rank_24h_ago": "517",
      "mentions_24h_ago": "4"
    },
    {
      "rank": 30,
      "ticker": "IBKR",
      "name": "Interactive Brokers",
      "mentions": "13",
      "upvotes": "25",
      "rank_24h_ago": "89",
      "mentions_24h_ago": "8"
    },
    {
      "rank": 31,
      "ticker": "FOR",
      "name": "Forestar Group",
      "mentions": "13",
      "upvotes": "58",
      "rank_24h_ago": "27",
      "mentions_24h_ago": "21"
    },
    {
      "rank": 32,
      "ticker": "ALL",
      "name": "Allstate",
      "mentions": "12",
      "upvotes": "24",
      "rank_24h_ago": "25",
      "mentions_24h_ago": "20"
    },
    {
      "rank": 33,
      "ticker": "UVXY",
      "name": "ProShares Trust - ProShares Ultra VIX Short-Term Futures ETF",
      "mentions": "12",
      "upvotes": "31",
      "rank_24h_ago": "83",
      "mentions_24h_ago": "4"
    },
    {
      "rank": 34,
      "ticker": "TQQQ",
      "name": "ProShares Trust - ProShares UltraPro QQQ",
      "mentions": "12",
      "upvotes": "26",
      "rank_24h_ago": "88",
      "mentions_24h_ago": "8"
    },
    {
      "rank": 35,
      "ticker": "MU",
      "name": "Micron Technology",
      "mentions": "12",
      "upvotes": "68",
      "rank_24h_ago": "161",
      "mentions_24h_ago": "2"
    },
    {
      "rank": 36,
      "ticker": "HOOD",
      "name": "Robinhood",
      "mentions": "12",
      "upvotes": "2",
      "rank_24h_ago": "106",
      "mentions_24h_ago": "10"
    },
    {
      "rank": 37,
      "ticker": "AR",
      "name": "Antero Resources",
      "mentions": "11",
      "upvotes": "12",
      "rank_24h_ago": "141",
      "mentions_24h_ago": "2"
    },
    {
      "rank": 38,
      "ticker": "TA",
      "name": "TravelCenters of America",
      "mentions": "9",
      "upvotes": "13",
      "rank_24h_ago": "39",
      "mentions_24h_ago": "18"
    },
    {
      "rank": 39,
      "ticker": "GM",
      "name": "General Motors",
      "mentions": "9",
      "upvotes": "1",
      "rank_24h_ago": "43",
      "mentions_24h_ago": "14"
    },
    {
      "rank": 40,
      "ticker": "DO",
      "name": "Diamond Offshore Drilling",
      "mentions": "9",
      "upvotes": "32",
      "rank_24h_ago": "73",
      "mentions_24h_ago": "7"
    },
    {
      "rank": 41,
      "ticker": "IRS",
      "name": "IRSA Inversiones y Representaciones",
      "mentions": "9",
      "upvotes": "32",
      "rank_24h_ago": "51",
      "mentions_24h_ago": "10"
    },
    {
      "rank": 42,
      "ticker": "SP",
      "name": "SP Plus Corporation",
      "mentions": "9",
      "upvotes": "71",
      "rank_24h_ago": "28",
      "mentions_24h_ago": "13"
    },
    {
      "rank": 43,
      "ticker": "TLRY",
      "name": "Tilray",
      "mentions": "9",
      "upvotes": "40",
      "rank_24h_ago": "56",
      "mentions_24h_ago": "16"
    },
    {
      "rank": 44,
      "ticker": "AMZN",
      "name": "Amazon",
      "mentions": "9",
      "upvotes": "51",
      "rank_24h_ago": "41",
      "mentions_24h_ago": "12"
    },
    {
      "rank": 45,
      "ticker": "VTI",
      "name": "Vanguard Total Stock Market ETF",
      "mentions": "9",
      "upvotes": "60",
      "rank_24h_ago": "36",
      "mentions_24h_ago": "22"
    },
    {
      "rank": 46,
      "ticker": "APE",
      "name": "AMC APE preferred stock",
      "mentions": "9",
      "upvotes": "16",
      "rank_24h_ago": "44",
      "mentions_24h_ago": "11"
    },
    {
      "rank": 47,
      "ticker": "XOM",
      "name": "Exxon Mobil",
      "mentions": "8",
      "upvotes": "17",
      "rank_24h_ago": "122",
      "mentions_24h_ago": "3"
    },
    {
      "rank": 48,
      "ticker": "UI",
      "name": "Ubiquiti",
      "mentions": "8",
      "upvotes": "21",
      "rank_24h_ago": "108",
      "mentions_24h_ago": "7"
    },
    {
      "rank": 49,
      "ticker": "WMT",
      "name": "Walmart",
      "mentions": "8",
      "upvotes": "42",
      "rank_24h_ago": "99",
      "mentions_24h_ago": "4"
    },
    {
      "rank": 50,
      "ticker": "BAC",
      "name": "Bank of America",
      "mentions": "8",
      "upvotes": "57",
      "rank_24h_ago": "26",
      "mentions_24h_ago": "17"
    },
    {
      "rank": 51,
      "ticker": "OG",
      "name": "Onion Global",
      "mentions": "8",
      "upvotes": "28",
      "rank_24h_ago": "155",
      "mentions_24h_ago": "4"
    },
    {
      "rank": 52,
      "ticker": "UP",
      "name": "Wheels Up",
      "mentions": "8",
      "upvotes": "15",
      "rank_24h_ago": "40",
      "mentions_24h_ago": "14"
    },
    {
      "rank": 53,
      "ticker": "ON",
      "name": "ON Semiconductor",
      "mentions": "8",
      "upvotes": "38",
      "rank_24h_ago": "19",
      "mentions_24h_ago": "27"
    },
    {
      "rank": 54,
      "ticker": "BE",
      "name": "Bloom Energy",
      "mentions": "8",
      "upvotes": "27",
      "rank_24h_ago": "78",
      "mentions_24h_ago": "9"
    },
    {
      "rank": 55,
      "ticker": "SQQQ",
      "name": "ProShares Trust - ProShares UltraPro Short QQQ",
      "mentions": "8",
      "upvotes": "15",
      "rank_24h_ago": "31",
      "mentions_24h_ago": "10"
    },
    {
      "rank": 56,
      "ticker": "MS",
      "name": "Morgan Stanley",
      "mentions": "8",
      "upvotes": "25",
      "rank_24h_ago": "932",
      "mentions_24h_ago": "1"
    },
    {
      "rank": 57,
      "ticker": "ARVL",
      "name": "Arrival",
      "mentions": "8",
      "upvotes": "33",
      "rank_24h_ago": "0",
      "mentions_24h_ago": null
    },
    {
      "rank": 58,
      "ticker": "FXH",
      "name": "First Trust Exchange-Traded Fund III - First Trust Health Care AlphaDE",
      "mentions": "8",
      "upvotes": "36",
      "rank_24h_ago": "68",
      "mentions_24h_ago": "9"
    },
    {
      "rank": 59,
      "ticker": "CME",
      "name": "CME Group",
      "mentions": "7",
      "upvotes": "22",
      "rank_24h_ago": "237",
      "mentions_24h_ago": "1"
    },
    {
      "rank": 60,
      "ticker": "BL",
      "name": "BlackLine",
      "mentions": "7",
      "upvotes": "10",
      "rank_24h_ago": "136",
      "mentions_24h_ago": "4"
    },
    {
      "rank": 61,
      "ticker": "NOW",
      "name": "ServiceNow",
      "mentions": "7",
      "upvotes": "26",
      "rank_24h_ago": "58",
      "mentions_24h_ago": "12"
    },
    {
      "rank": 62,
      "ticker": "BBBY",
      "name": "Bed Bath &amp; Beyond",
      "mentions": "7",
      "upvotes": "20",
      "rank_24h_ago": "22",
      "mentions_24h_ago": "21"
    },
    {
      "rank": 63,
      "ticker": "JPM",
      "name": "JPMorgan Chase",
      "mentions": "7",
      "upvotes": "169",
      "rank_24h_ago": "37",
      "mentions_24h_ago": "15"
    },
    {
      "rank": 64,
      "ticker": "ME",
      "name": "23andMe",
      "mentions": "6",
      "upvotes": "11",
      "rank_24h_ago": "147",
      "mentions_24h_ago": "4"
    },
    {
      "rank": 65,
      "ticker": "WE",
      "name": "WeWork",
      "mentions": "6",
      "upvotes": "24",
      "rank_24h_ago": "72",
      "mentions_24h_ago": "10"
    },
    {
      "rank": 66,
      "ticker": "UNG",
      "name": "United States Commodity Funds LLC - United States Natural Gas Fund",
      "mentions": "6",
      "upvotes": "11",
      "rank_24h_ago": "208",
      "mentions_24h_ago": "2"
    },
    {
      "rank": 67,
      "ticker": "GL",
      "name": "Globe Life",
      "mentions": "6",
      "upvotes": "12",
      "rank_24h_ago": "215",
      "mentions_24h_ago": "1"
    },
    {
      "rank": 68,
      "ticker": "ACH",
      "name": "Aluminum Corporation of China",
      "mentions": "6",
      "upvotes": "16",
      "rank_24h_ago": "218",
      "mentions_24h_ago": "5"
    },
    {
      "rank": 69,
      "ticker": "LFG",
      "name": "Archaea Energy",
      "mentions": "6",
      "upvotes": "18",
      "rank_24h_ago": "159",
      "mentions_24h_ago": "3"
    },
    {
      "rank": 70,
      "ticker": "WW",
      "name": "Weight Watchers",
      "mentions": "6",
      "upvotes": "2",
      "rank_24h_ago": "77",
      "mentions_24h_ago": "5"
    },
    {
      "rank": 71,
      "ticker": "MT",
      "name": "ArcelorMittal",
      "mentions": "6",
      "upvotes": "15",
      "rank_24h_ago": "863",
      "mentions_24h_ago": "1"
    },
    {
      "rank": 72,
      "ticker": "NEGG",
      "name": "Newegg",
      "mentions": "6",
      "upvotes": "9",
      "rank_24h_ago": "243",
      "mentions_24h_ago": "10"
    },
    {
      "rank": 73,
      "ticker": "PXMD",
      "name": "PaxMedica",
      "mentions": "5",
      "upvotes": "10",
      "rank_24h_ago": "121",
      "mentions_24h_ago": "6"
    },
    {
      "rank": 74,
      "ticker": "SCHD",
      "name": "Schwab Strategic Trust - CSIM Schwab US Dividend Equity ETF",
      "mentions": "5",
      "upvotes": "4",
      "rank_24h_ago": "61",
      "mentions_24h_ago": "14"
    },
    {
      "rank": 75,
      "ticker": "UPST",
      "name": "Upstart",
      "mentions": "5",
      "upvotes": "23",
      "rank_24h_ago": "50",
      "mentions_24h_ago": "11"
    },
    {
      "rank": 76,
      "ticker": "ET",
      "name": "Energy Transfer Partners",
      "mentions": "5",
      "upvotes": "10",
      "rank_24h_ago": "86",
      "mentions_24h_ago": "8"
    },
    {
      "rank": 77,
      "ticker": "BY",
      "name": "Byline Bancorp",
      "mentions": "5",
      "upvotes": "31",
      "rank_24h_ago": "130",
      "mentions_24h_ago": "3"
    },
    {
      "rank": 78,
      "ticker": "IQ",
      "name": "iQIYI",
      "mentions": "5",
      "upvotes": "54",
      "rank_24h_ago": "32",
      "mentions_24h_ago": "14"
    },
    {
      "rank": 79,
      "ticker": "VXX",
      "name": "iPath S&amp;P 500 VIX Short-Term Futures",
      "mentions": "5",
      "upvotes": "35",
      "rank_24h_ago": "135",
      "mentions_24h_ago": "1"
    },
    {
      "rank": 80,
      "ticker": "BABA",
      "name": "Alibaba",
      "mentions": "5",
      "upvotes": "19",
      "rank_24h_ago": "102",
      "mentions_24h_ago": "14"
    },
    {
      "rank": 81,
      "ticker": "SSD",
      "name": "Simpson Manufacturing Company",
      "mentions": "5",
      "upvotes": "71",
      "rank_24h_ago": "0",
      "mentions_24h_ago": null
    },
    {
      "rank": 82,
      "ticker": "OR",
      "name": "Osisko Gold Royalties",
      "mentions": "5",
      "upvotes": "12",
      "rank_24h_ago": "81",
      "mentions_24h_ago": "7"
    },
    {
      "rank": 83,
      "ticker": "TLT",
      "name": "BlackRock Institutional Trust Company N.A. - BTC iShares 20+ Year Trea",
      "mentions": "4",
      "upvotes": "10",
      "rank_24h_ago": "107",
      "mentions_24h_ago": "3"
    },
    {
      "rank": 84,
      "ticker": "SPUS",
      "name": "Tidal ETF Trust - SP Funds S&P 500 Sharia Industry Exclusions ETF",
      "mentions": "4",
      "upvotes": "7",
      "rank_24h_ago": "0",
      "mentions_24h_ago": null
    },
    {
      "rank": 85,
      "ticker": "DM",
      "name": "Desktop Metal",
      "mentions": "4",
      "upvotes": "95",
      "rank_24h_ago": "62",
      "mentions_24h_ago": "6"
    },
    {
      "rank": 86,
      "ticker": "GLD",
      "name": "SSgA Active Trust - SSgA SPDR Gold Shares",
      "mentions": "4",
      "upvotes": "13",
      "rank_24h_ago": "64",
      "mentions_24h_ago": "5"
    },
    {
      "rank": 87,
      "ticker": "MA",
      "name": "Mastercard",
      "mentions": "4",
      "upvotes": "12",
      "rank_24h_ago": "153",
      "mentions_24h_ago": "5"
    },
    {
      "rank": 88,
      "ticker": "VC",
      "name": "Visteon",
      "mentions": "4",
      "upvotes": "31",
      "rank_24h_ago": "209",
      "mentions_24h_ago": "2"
    },
    {
      "rank": 89,
      "ticker": "HR",
      "name": "Healthcare Realty",
      "mentions": "4",
      "upvotes": "10",
      "rank_24h_ago": "90",
      "mentions_24h_ago": "6"
    },
    {
      "rank": 90,
      "ticker": "SBUX",
      "name": "Starbucks",
      "mentions": "4",
      "upvotes": "7",
      "rank_24h_ago": "757",
      "mentions_24h_ago": "2"
    },
    {
      "rank": 91,
      "ticker": "INTC",
      "name": "Intel",
      "mentions": "4",
      "upvotes": "12",
      "rank_24h_ago": "137",
      "mentions_24h_ago": "6"
    },
    {
      "rank": 92,
      "ticker": "GO",
      "name": "Grocery Outlet",
      "mentions": "4",
      "upvotes": "10",
      "rank_24h_ago": "53",
      "mentions_24h_ago": "10"
    },
    {
      "rank": 93,
      "ticker": "TELL",
      "name": "Tellurian",
      "mentions": "4",
      "upvotes": "39",
      "rank_24h_ago": "965",
      "mentions_24h_ago": "3"
    },
    {
      "rank": 94,
      "ticker": "UNH",
      "name": "UnitedHealth",
      "mentions": "4",
      "upvotes": "14",
      "rank_24h_ago": "46",
      "mentions_24h_ago": "8"
    },
    {
      "rank": 95,
      "ticker": "MF",
      "name": "Missfresh",
      "mentions": "4",
      "upvotes": "9",
      "rank_24h_ago": "182",
      "mentions_24h_ago": "4"
    },
    {
      "rank": 96,
      "ticker": "PLUG",
      "name": "Plug Power",
      "mentions": "4",
      "upvotes": "10",
      "rank_24h_ago": "1048",
      "mentions_24h_ago": "1"
    },
    {
      "rank": 97,
      "ticker": "IG",
      "name": "Principal Exchange-Traded Funds - Principal Investment Grade Corporate",
      "mentions": "4",
      "upvotes": "17",
      "rank_24h_ago": "1057",
      "mentions_24h_ago": "1"
    },
    {
      "rank": 98,
      "ticker": "RE",
      "name": "Everest Re",
      "mentions": "3",
      "upvotes": "13",
      "rank_24h_ago": "34",
      "mentions_24h_ago": "16"
    },
    {
      "rank": 99,
      "ticker": "AA",
      "name": "Alcoa",
      "mentions": "3",
      "upvotes": "4",
      "rank_24h_ago": "123",
      "mentions_24h_ago": "4"
    },
    {
      "rank": 100,
      "ticker": "FL",
      "name": "Foot Locker",
      "mentions": "3",
      "upvotes": "6",
      "rank_24h_ago": "368",
      "mentions_24h_ago": "1"
    }
  ]
}