{
  "count": 482,
  "pages": 5,
  "current_page": 1,
  "results": [
    {
      "rank": 1,
      "ticker": "BTC.X",
      "name": "Bitcoin",
      "mentions": "636",
      "upvotes": "1688",
      "rank_24h_ago": "1",
      "mentions_24h_ago": "897"
    },
    {
      "rank": 2,
      "ticker": "ETH.X",
      "name": "Ethereum",
      "mentions": "428",
      "upvotes": "1241",
      "rank_24h_ago": "2",
      "mentions_24h_ago": "567"
    },
    {
      "rank": 3,
      "ticker": "DOGE.X",
      "name": "Dogecoin",
      "mentions": "69",
      "upvotes": "442",
      "rank_24h_ago": "7",
      "mentions_24h_ago": "57"
    },
    {
      "rank": 4,
      "ticker": "FTX.X",
      "name": "FintruX Network",
      "mentions": "67",
      "upvotes": "411",
      "rank_24h_ago": "3",
      "mentions_24h_ago": "92"
    },
    {
      "rank": 5,
      "ticker": "LRC.X",
      "name": "Loopring",
      "mentions": "60",
      "upvotes": "358",
      "rank_24h_ago": "16",
      "mentions_24h_ago": "22"
    },
    {
      "rank": 6,
      "ticker": "DONUT.X",
      "name": "Donut",
      "mentions": "58",
      "upvotes": "61",
      "rank_24h_ago": "6",
      "mentions_24h_ago": "68"
    },
    {
      "rank": 7,
      "ticker": "SOL.X",
      "name": "Solana",
      "mentions": "48",
      "upvotes": "328",
      "rank_24h_ago": "24",
      "mentions_24h_ago": "18"
    },
    {
      "rank": 8,
      "ticker": "ADA.X",
      "name": "Cardano",
      "mentions": "44",
      "upvotes": "78",
      "rank_24h_ago": "4",
      "mentions_24h_ago": "89"
    },
    {
      "rank": 9,
      "ticker": "LTC.X",
      "name": "Litecoin",
      "mentions": "42",
      "upvotes": "319",
      "rank_24h_ago": "5",
      "mentions_24h_ago": "54"
    },
    {
      "rank": 10,
      "ticker": "XRP.X",
      "name": "XRP",
      "mentions": "41",
      "upvotes": "78",
      "rank_24h_ago": "8",
      "mentions_24h_ago": "46"
    },
    {
      "rank": 11,
      "ticker": "GPT.X",
      "name": "Grace Period Token",
      "mentions": "41",
      "upvotes": "114",
      "rank_24h_ago": "14",
      "mentions_24h_ago": "50"
    },
    {
      "rank": 12,
      "ticker": "DEX.X",
      "name": "DEX",
      "mentions": "39",
      "upvotes": "78",
      "rank_24h_ago": "13",
      "mentions_24h_ago": "29"
    },
    {
      "rank": 13,
      "ticker": "DOT.X",
      "name": "Polkadot",
      "mentions": "38",
      "upvotes": "93",
      "rank_24h_ago": "9",
      "mentions_24h_ago": "47"
    },
    {
      "rank": 14,
      "ticker": "MATIC.X",
      "name": "Polygon",
      "mentions": "37",
      "upvotes": "75",
      "rank_24h_ago": "11",
      "mentions_24h_ago": "38"
    },
    {
      "rank": 15,
      "ticker": "CRO.X",
      "name": "Crypto.com Coin",
      "mentions": "35",
      "upvotes": "115",
      "rank_24h_ago": "27",
      "mentions_24h_ago": "13"
    },
    {
      "rank": 16,
      "ticker": "ARB.X",
      "name": "ARbit",
      "mentions": "29",
      "upvotes": "41",
      "rank_24h_ago": "10",
      "mentions_24h_ago": "34"
    },
    {
      "rank": 17,
      "ticker": "ONE.X",
      "name": "Harmony",
      "mentions": "29",
      "upvotes": "145",
      "rank_24h_ago": "43",
      "mentions_24h_ago": "9"
    },
    {
      "rank": 18,
      "ticker": "OG.X",
      "name": "OG Fan Token",
      "mentions": "26",
      "upvotes": "67",
      "rank_24h_ago": "30",
      "mentions_24h_ago": "12"
    },
    {
      "rank": 19,
      "ticker": "USDC.X",
      "name": "USD Coin",
      "mentions": "25",
      "upvotes": "1102",
      "rank_24h_ago": "17",
      "mentions_24h_ago": "29"
    },
    {
      "rank": 20,
      "ticker": "DAO.X",
      "name": "DAO Maker",
      "mentions": "25",
      "upvotes": "1085",
      "rank_24h_ago": "18",
      "mentions_24h_ago": "23"
    },
    {
      "rank": 21,
      "ticker": "MOONS.X",
      "name": "MoonTools",
      "mentions": "24",
      "upvotes": "92",
      "rank_24h_ago": "21",
      "mentions_24h_ago": "14"
    },
    {
      "rank": 22,
      "ticker": "ALGO.X",
      "name": "Algorand",
      "mentions": "24",
      "upvotes": "121",
      "rank_24h_ago": "26",
      "mentions_24h_ago": "13"
    },
    {
      "rank": 23,
      "ticker": "MEXC.X",
      "name": "MEXC Token",
      "mentions": "23",
      "upvotes": "1087",
      "rank_24h_ago": "38",
      "mentions_24h_ago": "8"
    },
    {
      "rank": 24,
      "ticker": "ID.X",
      "name": "Everest",
      "mentions": "21",
      "upvotes": "34",
      "rank_24h_ago": "33",
      "mentions_24h_ago": "10"
    },
    {
      "rank": 25,
      "ticker": "USDT.X",
      "name": "Tether",
      "mentions": "21",
      "upvotes": "168",
      "rank_24h_ago": "34",
      "mentions_24h_ago": "13"
    },
    {
      "rank": 26,
      "ticker": "LUNA.X",
      "name": "Terra",
      "mentions": "20",
      "upvotes": "80",
      "rank_24h_ago": "22",
      "mentions_24h_ago": "10"
    },
    {
      "rank": 27,
      "ticker": "APY.X",
      "name": "APY.Finance",
      "mentions": "19",
      "upvotes": "84",
      "rank_24h_ago": "45",
      "mentions_24h_ago": "8"
    },
    {
      "rank": 28,
      "ticker": "GME.X",
      "name": "GameStop tokenized stock FTX",
      "mentions": "18",
      "upvotes": "1494",
      "rank_24h_ago": "61",
      "mentions_24h_ago": "4"
    },
    {
      "rank": 29,
      "ticker": "ATOM.X",
      "name": "Cosmos",
      "mentions": "18",
      "upvotes": "42",
      "rank_24h_ago": "31",
      "mentions_24h_ago": "12"
    },
    {
      "rank": 30,
      "ticker": "ACH.X",
      "name": "Alchemy Pay",
      "mentions": "14",
      "upvotes": "31",
      "rank_24h_ago": "37",
      "mentions_24h_ago": "14"
    },
    {
      "rank": 31,
      "ticker": "LINK.X",
      "name": "Chainlink",
      "mentions": "12",
      "upvotes": "14",
      "rank_24h_ago": "109",
      "mentions_24h_ago": "19"
    },
    {
      "rank": 32,
      "ticker": "IT.X",
      "name": "IDCM Token",
      "mentions": "12",
      "upvotes": "125",
      "rank_24h_ago": "49",
      "mentions_24h_ago": "8"
    },
    {
      "rank": 33,
      "ticker": "BNB.X",
      "name": "Binance Coin",
      "mentions": "11",
      "upvotes": "32",
      "rank_24h_ago": "15",
      "mentions_24h_ago": "22"
    },
    {
      "rank": 34,
      "ticker": "VET.X",
      "name": "VeChain",
      "mentions": "11",
      "upvotes": "75",
      "rank_24h_ago": "47",
      "mentions_24h_ago": "5"
    },
    {
      "rank": 35,
      "ticker": "SHIB.X",
      "name": "SHIBA INU",
      "mentions": "11",
      "upvotes": "31",
      "rank_24h_ago": "41",
      "mentions_24h_ago": "10"
    },
    {
      "rank": 36,
      "ticker": "PDF.X",
      "name": "Port of DeFi Network",
      "mentions": "10",
      "upvotes": "20",
      "rank_24h_ago": "29",
      "mentions_24h_ago": "13"
    },
    {
      "rank": 37,
      "ticker": "YOU.X",
      "name": "YOU COIN",
      "mentions": "10",
      "upvotes": "50",
      "rank_24h_ago": "25",
      "mentions_24h_ago": "13"
    },
    {
      "rank": 38,
      "ticker": "APR.X",
      "name": "APR Coin",
      "mentions": "9",
      "upvotes": "15",
      "rank_24h_ago": "23",
      "mentions_24h_ago": "14"
    },
    {
      "rank": 39,
      "ticker": "XMR.X",
      "name": "Monero",
      "mentions": "9",
      "upvotes": "14",
      "rank_24h_ago": "40",
      "mentions_24h_ago": "6"
    },
    {
      "rank": 40,
      "ticker": "UST.X",
      "name": "TerraUSD",
      "mentions": "9",
      "upvotes": "22",
      "rank_24h_ago": "90",
      "mentions_24h_ago": "1"
    },
    {
      "rank": 41,
      "ticker": "CDC.X",
      "name": "Commerce Data Connection",
      "mentions": "8",
      "upvotes": "24",
      "rank_24h_ago": "35",
      "mentions_24h_ago": "6"
    },
    {
      "rank": 42,
      "ticker": "NEXO.X",
      "name": "Nexo",
      "mentions": "7",
      "upvotes": "31",
      "rank_24h_ago": "184",
      "mentions_24h_ago": "1"
    },
    {
      "rank": 43,
      "ticker": "BUT.X",
      "name": "BitUP Token",
      "mentions": "7",
      "upvotes": "12",
      "rank_24h_ago": "32",
      "mentions_24h_ago": "11"
    },
    {
      "rank": 44,
      "ticker": "AVAX.X",
      "name": "Avalanche",
      "mentions": "7",
      "upvotes": "38",
      "rank_24h_ago": "399",
      "mentions_24h_ago": "1"
    },
    {
      "rank": 45,
      "ticker": "GOLD.X",
      "name": "Golden Goose",
      "mentions": "7",
      "upvotes": "14",
      "rank_24h_ago": "439",
      "mentions_24h_ago": "1"
    },
    {
      "rank": 46,
      "ticker": "XLM.X",
      "name": "Stellar",
      "mentions": "7",
      "upvotes": "14",
      "rank_24h_ago": "28",
      "mentions_24h_ago": "12"
    },
    {
      "rank": 47,
      "ticker": "LOT.X",
      "name": "Lukki Operating Token",
      "mentions": "6",
      "upvotes": "17",
      "rank_24h_ago": "52",
      "mentions_24h_ago": "7"
    },
    {
      "rank": 48,
      "ticker": "SNL.X",
      "name": "Sport and Leisure",
      "mentions": "6",
      "upvotes": "20",
      "rank_24h_ago": "334",
      "mentions_24h_ago": "1"
    },
    {
      "rank": 49,
      "ticker": "BIS.X",
      "name": "Bismuth",
      "mentions": "6",
      "upvotes": "10",
      "rank_24h_ago": "407",
      "mentions_24h_ago": "1"
    },
    {
      "rank": 50,
      "ticker": "AT.X",
      "name": "Artfinity",
      "mentions": "5",
      "upvotes": "16",
      "rank_24h_ago": "282",
      "mentions_24h_ago": "1"
    },
    {
      "rank": 51,
      "ticker": "ANY.X",
      "name": "Anyswap",
      "mentions": "5",
      "upvotes": "75",
      "rank_24h_ago": "83",
      "mentions_24h_ago": "1"
    },
    {
      "rank": 52,
      "ticker": "AMP.X",
      "name": "Amp",
      "mentions": "5",
      "upvotes": "7",
      "rank_24h_ago": "58",
      "mentions_24h_ago": "3"
    },
    {
      "rank": 53,
      "ticker": "NEAR.X",
      "name": "NEAR Protocol",
      "mentions": "4",
      "upvotes": "7",
      "rank_24h_ago": "97",
      "mentions_24h_ago": "2"
    },
    {
      "rank": 54,
      "ticker": "HBAR.X",
      "name": "Hedera Hashgraph",
      "mentions": "4",
      "upvotes": "8",
      "rank_24h_ago": "74",
      "mentions_24h_ago": "3"
    },
    {
      "rank": 55,
      "ticker": "SVB.X",
      "name": "Sendvibe",
      "mentions": "4",
      "upvotes": "29",
      "rank_24h_ago": "44",
      "mentions_24h_ago": "13"
    },
    {
      "rank": 56,
      "ticker": "ATM.X",
      "name": "Atletico De Madrid Fan Token",
      "mentions": "4",
      "upvotes": "10",
      "rank_24h_ago": "19",
      "mentions_24h_ago": "19"
    },
    {
      "rank": 57,
      "ticker": "BBC.X",
      "name": "TraDove B2BCoin",
      "mentions": "4",
      "upvotes": "7",
      "rank_24h_ago": "417",
      "mentions_24h_ago": "1"
    },
    {
      "rank": 58,
      "ticker": "OMI.X",
      "name": "ECOMI",
      "mentions": "3",
      "upvotes": "17",
      "rank_24h_ago": "0",
      "mentions_24h_ago": null
    },
    {
      "rank": 59,
      "ticker": "BAT.X",
      "name": "Basic Attention Token",
      "mentions": "3",
      "upvotes": "10",
      "rank_24h_ago": "39",
      "mentions_24h_ago": "6"
    },
    {
      "rank": 60,
      "ticker": "SHA.X",
      "name": "Safe Haven",
      "mentions": "3",
      "upvotes": "4",
      "rank_24h_ago": "36",
      "mentions_24h_ago": "9"
    },
    {
      "rank": 61,
      "ticker": "LN.X",
      "name": "LINK",
      "mentions": "3",
      "upvotes": "5",
      "rank_24h_ago": "104",
      "mentions_24h_ago": "2"
    },
    {
      "rank": 62,
      "ticker": "TOS.X",
      "name": "ThingsOperatingSystem",
      "mentions": "3",
      "upvotes": "7",
      "rank_24h_ago": "55",
      "mentions_24h_ago": "1"
    },
    {
      "rank": 63,
      "ticker": "CKB.X",
      "name": "Nervos Network",
      "mentions": "3",
      "upvotes": "4",
      "rank_24h_ago": "46",
      "mentions_24h_ago": "4"
    },
    {
      "rank": 64,
      "ticker": "GM.X",
      "name": "GM Holding",
      "mentions": "3",
      "upvotes": "6",
      "rank_24h_ago": "53",
      "mentions_24h_ago": "6"
    },
    {
      "rank": 65,
      "ticker": "PRO.X",
      "name": "Propy",
      "mentions": "3",
      "upvotes": "5",
      "rank_24h_ago": "20",
      "mentions_24h_ago": "15"
    },
    {
      "rank": 66,
      "ticker": "NOW.X",
      "name": "NOW Token",
      "mentions": "3",
      "upvotes": "5",
      "rank_24h_ago": "85",
      "mentions_24h_ago": "5"
    },
    {
      "rank": 67,
      "ticker": "AMC.X",
      "name": "AMC Entertainment Holdings tokenized stock FTX",
      "mentions": "3",
      "upvotes": "9",
      "rank_24h_ago": "415",
      "mentions_24h_ago": "1"
    },
    {
      "rank": 68,
      "ticker": "CEL.X",
      "name": "Celsius",
      "mentions": "3",
      "upvotes": "5",
      "rank_24h_ago": "91",
      "mentions_24h_ago": "3"
    },
    {
      "rank": 69,
      "ticker": "ICP.X",
      "name": "Internet Computer",
      "mentions": "2",
      "upvotes": "12",
      "rank_24h_ago": "120",
      "mentions_24h_ago": "1"
    },
    {
      "rank": 70,
      "ticker": "MVP.X",
      "name": "Merculet",
      "mentions": "2",
      "upvotes": "4",
      "rank_24h_ago": "98",
      "mentions_24h_ago": "3"
    },
    {
      "rank": 71,
      "ticker": "ZKS.X",
      "name": "ZKSwap",
      "mentions": "2",
      "upvotes": "15",
      "rank_24h_ago": "149",
      "mentions_24h_ago": "1"
    },
    {
      "rank": 72,
      "ticker": "TIME.X",
      "name": "Chrono.tech",
      "mentions": "2",
      "upvotes": "6",
      "rank_24h_ago": "156",
      "mentions_24h_ago": null
    },
    {
      "rank": 73,
      "ticker": "MAX.X",
      "name": "Maxcoin",
      "mentions": "2",
      "upvotes": "4",
      "rank_24h_ago": "157",
      "mentions_24h_ago": "1"
    },
    {
      "rank": 74,
      "ticker": "DAI.X",
      "name": "Dai",
      "mentions": "2",
      "upvotes": "3",
      "rank_24h_ago": "159",
      "mentions_24h_ago": "1"
    },
    {
      "rank": 75,
      "ticker": "NEW.X",
      "name": "Newton",
      "mentions": "2",
      "upvotes": "17",
      "rank_24h_ago": "163",
      "mentions_24h_ago": "1"
    },
    {
      "rank": 76,
      "ticker": "UP.X",
      "name": "UpToken",
      "mentions": "2",
      "upvotes": "4",
      "rank_24h_ago": "71",
      "mentions_24h_ago": "2"
    },
    {
      "rank": 77,
      "ticker": "AGI.X",
      "name": "SingularityNET",
      "mentions": "2",
      "upvotes": "6",
      "rank_24h_ago": "202",
      "mentions_24h_ago": "1"
    },
    {
      "rank": 78,
      "ticker": "CAD.X",
      "name": "Candy Protocol",
      "mentions": "2",
      "upvotes": "4",
      "rank_24h_ago": "232",
      "mentions_24h_ago": "1"
    },
    {
      "rank": 79,
      "ticker": "JASMY.X",
      "name": "Jasmy",
      "mentions": "2",
      "upvotes": "3",
      "rank_24h_ago": "235",
      "mentions_24h_ago": "1"
    },
    {
      "rank": 80,
      "ticker": "CFX.X",
      "name": "Conflux Network",
      "mentions": "2",
      "upvotes": "5",
      "rank_24h_ago": "249",
      "mentions_24h_ago": "1"
    },
    {
      "rank": 81,
      "ticker": "FX.X",
      "name": "Function X",
      "mentions": "2",
      "upvotes": "5",
      "rank_24h_ago": "276",
      "mentions_24h_ago": null
    },
    {
      "rank": 82,
      "ticker": "AC.X",
      "name": "Affil Coin",
      "mentions": "2",
      "upvotes": "9",
      "rank_24h_ago": "56",
      "mentions_24h_ago": "3"
    },
    {
      "rank": 83,
      "ticker": "REAL.X",
      "name": "REAL",
      "mentions": "2",
      "upvotes": "13",
      "rank_24h_ago": "295",
      "mentions_24h_ago": "1"
    },
    {
      "rank": 84,
      "ticker": "GALA.X",
      "name": "Gala",
      "mentions": "2",
      "upvotes": "3",
      "rank_24h_ago": "79",
      "mentions_24h_ago": "3"
    },
    {
      "rank": 85,
      "ticker": "NPC.X",
      "name": "NPCoin",
      "mentions": "2",
      "upvotes": "6",
      "rank_24h_ago": "308",
      "mentions_24h_ago": "1"
    },
    {
      "rank": 86,
      "ticker": "AMA.X",
      "name": "AMATEN",
      "mentions": "2",
      "upvotes": "128",
      "rank_24h_ago": "80",
      "mentions_24h_ago": "1"
    },
    {
      "rank": 87,
      "ticker": "SNB.X",
      "name": "SynchroBitcoin",
      "mentions": "2",
      "upvotes": "4",
      "rank_24h_ago": "331",
      "mentions_24h_ago": "1"
    },
    {
      "rank": 88,
      "ticker": "GRT.X",
      "name": "Global Rental Token",
      "mentions": "2",
      "upvotes": "4",
      "rank_24h_ago": "343",
      "mentions_24h_ago": "1"
    },
    {
      "rank": 89,
      "ticker": "DNA.X",
      "name": "Metaverse Dualchain Network Architecture",
      "mentions": "2",
      "upvotes": "1",
      "rank_24h_ago": "359",
      "mentions_24h_ago": "1"
    },
    {
      "rank": 90,
      "ticker": "ASA.X",
      "name": "Asura Coin",
      "mentions": "2",
      "upvotes": "8",
      "rank_24h_ago": "372",
      "mentions_24h_ago": "1"
    },
    {
      "rank": 91,
      "ticker": "ON.X",
      "name": "OFIN Token",
      "mentions": "2",
      "upvotes": "40",
      "rank_24h_ago": "400",
      "mentions_24h_ago": "1"
    },
    {
      "rank": 92,
      "ticker": "ENJ.X",
      "name": "Enjin Coin",
      "mentions": "2",
      "upvotes": "5",
      "rank_24h_ago": "411",
      "mentions_24h_ago": "1"
    },
    {
      "rank": 93,
      "ticker": "INJ.X",
      "name": "Injective Protocol",
      "mentions": "2",
      "upvotes": "5",
      "rank_24h_ago": "420",
      "mentions_24h_ago": null
    },
    {
      "rank": 94,
      "ticker": "FTM.X",
      "name": "Fantom",
      "mentions": "2",
      "upvotes": "7",
      "rank_24h_ago": "88",
      "mentions_24h_ago": "4"
    },
    {
      "rank": 95,
      "ticker": "AKA.X",
      "name": "Akroma",
      "mentions": "2",
      "upvotes": "87",
      "rank_24h_ago": "89",
      "mentions_24h_ago": "2"
    },
    {
      "rank": 96,
      "ticker": "RAP.X",
      "name": "REALPAY",
      "mentions": "1",
      "upvotes": "2",
      "rank_24h_ago": "0",
      "mentions_24h_ago": null
    },
    {
      "rank": 97,
      "ticker": "FTT.X",
      "name": "FTX Token",
      "mentions": "1",
      "upvotes": "6",
      "rank_24h_ago": "70",
      "mentions_24h_ago": "2"
    },
    {
      "rank": 98,
      "ticker": "VIP.X",
      "name": "Limitless VIP",
      "mentions": "1",
      "upvotes": "28",
      "rank_24h_ago": "121",
      "mentions_24h_ago": "1"
    },
    {
      "rank": 99,
      "ticker": "DG.X",
      "name": "Decentral Games",
      "mentions": "1",
      "upvotes": "2",
      "rank_24h_ago": "122",
      "mentions_24h_ago": "1"
    },
    {
      "rank": 100,
      "ticker": "CNT.X",
      "name": "Centurion",
      "mentions": "1",
      "upvotes": "1",
      "rank_24h_ago": "0",
      "mentions_24h_ago": null
    }
  ]
}